Andmekvaliteedi hindamine, andmelünkade analüüs
…
## # A tibble: 8 x 3
##   n_miss_in_case n_cases pct_cases
##            <int>   <int>     <dbl>
## 1              0    1660   87.2   
## 2              1     189    9.93  
## 3              2      34    1.79  
## 4              3       8    0.420 
## 5              4       6    0.315 
## 6              5       4    0.210 
## 7              6       2    0.105 
## 8              7       1    0.0525

miss_case_summary(andmed)

## # A tibble: 1,904 x 3
##     case n_miss pct_miss
##    <int>  <int>    <dbl>
##  1  1270      7     53.8
##  2   179      6     46.2
##  3   255      6     46.2
##  4    32      5     38.5
##  5   482      5     38.5
##  6  1163      5     38.5
##  7  1729      5     38.5
##  8    80      4     30.8
##  9   362      4     30.8
## 10   372      4     30.8
## # ... with 1,894 more rows
…
